{"events":[{"id":8926086,"name":"Python@CV Buffalo","service_id":270616,"service_type":"class","start_time":"2021-08-25T00:00:00Z","end_time":"2021-09-01T01:30:00Z","created_at":"2021-08-20T01:19:50Z","updated_at":"2021-09-05T19:28:56Z","instructions":null,"recurs":true,"attendees":[],"icals":[{"rrule":"Weekly on Tuesdays until September 6, 2021","id":25814700,"repeat_end":1,"day":["2"],"interval":1,"rcount":null,"rule_type":"Weekly","all_day":null,"location_id":22675,"start_at":"2021-08-25T00:00:00Z","end_at":"2021-08-25T01:30:00Z","until_at":"2021-09-07T06:59:59Z"}]},{"id":9851133,"name":"Python@CV Llama","service_id":270616,"service_type":"class","start_time":"2022-03-26T01:30:00Z","end_time":"2022-09-10T03:00:00Z","created_at":"2022-03-17T04:25:21Z","updated_at":"2022-09-12T20:09:43Z","instructions":null,"recurs":true,"attendees":[],"icals":[{"rrule":"Weekly on Fridays until September 15, 2022","id":27945790,"repeat_end":1,"day":["5"],"interval":1,"rcount":null,"rule_type":"Weekly","all_day":null,"location_id":22675,"start_at":"2022-03-26T01:30:00Z","end_at":"2022-03-26T03:00:00Z","organizers":[{"id":9206610,"name":"Osvaldo Ruiz"}],"until_at":"2022-09-16T06:59:59Z"},{"id":29309819,"repeat_end":0,"day":[],"interval":null,"rcount":null,"rule_type":null,"all_day":null,"location_id":22675,"start_at":"2022-06-18T01:30:00Z","end_at":"2022-06-18T03:00:00Z"},{"id":29716481,"repeat_end":0,"day":[],"interval":null,"rcount":null,"rule_type":null,"all_day":null,"location_id":22675,"start_at":"2022-08-13T01:30:00Z","end_at":"2022-08-13T03:00:00Z","organizers":[{"id":9206610,"name":"Osvaldo Ruiz"}]}]},{"id":10428190,"name":"Python@CV Koala","service_id":270616,"service_type":"class","start_time":"2022-07-09T00:00:00Z","end_time":null,"created_at":"2022-07-07T21:24:25Z","updated_at":"2025-10-28T21:52:11Z","instructions":null,"recurs":true,"attendees":[{"start_at":"2024-07-06T00:00:00Z","end_at":null}],"icals":[{"rrule":"Weekly on Fridays until September 26, 2024","id":29326285,"repeat_end":1,"day":["5"],"interval":1,"rcount":null,"rule_type":"Weekly","all_day":null,"location_id":22675,"start_at":"2022-07-09T00:00:00Z","end_at":"2022-07-09T01:30:00Z","organizers":[{"id":9206610,"name":"Osvaldo Ruiz"}],"until_at":"2024-09-27T06:59:59Z"},{"id":29407236,"repeat_end":0,"day":[],"interval":null,"rcount":null,"rule_type":null,"all_day":null,"location_id":22675,"start_at":"2022-07-16T00:00:00Z","end_at":"2022-07-16T01:30:00Z","organizers":[{"id":5166821,"name":"Mike Johnson"}]},{"id":29716477,"repeat_end":0,"day":[],"interval":null,"rcount":null,"rule_type":null,"all_day":null,"location_id":22675,"start_at":"2022-08-13T00:00:00Z","end_at":"2022-08-13T01:30:00Z","organizers":[{"id":9206610,"name":"Osvaldo Ruiz"}]},{"id":31406193,"repeat_end":0,"day":[],"interval":null,"rcount":null,"rule_type":null,"all_day":null,"location_id":23281,"start_at":"2022-12-31T01:00:00Z","end_at":"2022-12-31T02:30:00Z"},{"id":32628199,"repeat_end":0,"day":[],"interval":null,"rcount":null,"rule_type":null,"all_day":null,"location_id":22675,"start_at":"2023-04-08T00:00:00Z","end_at":"2023-04-08T01:30:00Z","organizers":[{"id":10166404,"name":"Nick Graham"}]},{"id":32879522,"repeat_end":0,"day":[],"interval":null,"rcount":null,"rule_type":null,"all_day":null,"location_id":22675,"start_at":"2023-05-20T00:00:00Z","end_at":"2023-05-20T01:30:00Z","organizers":[{"id":5166821,"name":"Mike Johnson"}]},{"id":33840245,"repeat_end":0,"day":[],"interval":null,"rcount":null,"rule_type":null,"all_day":null,"location_id":22675,"start_at":"2023-07-08T00:00:00Z","end_at":"2023-07-08T01:30:00Z","organizers":[{"id":11498803,"name":"Amy Zhao"}]},{"id":34599420,"repeat_end":0,"day":[],"interval":null,"rcount":null,"rule_type":null,"all_day":null,"location_id":22675,"start_at":"2023-08-26T00:00:00Z","end_at":"2023-08-26T01:30:00Z","organizers":[{"id":10166404,"name":"Nick Graham"}]},{"id":35054638,"repeat_end":0,"day":[],"interval":null,"rcount":null,"rule_type":null,"all_day":null,"location_id":22675,"start_at":"2023-10-07T00:00:00Z","end_at":"2023-10-07T01:30:00Z","organizers":[{"id":5166821,"name":"Mike Johnson"}]},{"id":36151518,"repeat_end":0,"day":[],"interval":null,"rcount":null,"rule_type":null,"all_day":null,"location_id":22675,"start_at":"2024-01-06T01:00:00Z","end_at":"2024-01-06T02:30:00Z"},{"id":36528833,"repeat_end":0,"day":[],"interval":null,"rcount":null,"rule_type":null,"all_day":null,"location_id":22675,"start_at":"2024-02-03T01:00:00Z","end_at":"2024-02-03T02:30:00Z","organizers":[{"id":10166404,"name":"Nick Graham"}]},{"id":38586087,"repeat_end":0,"day":[],"interval":null,"rcount":null,"rule_type":null,"all_day":null,"location_id":22675,"start_at":"2024-07-13T00:00:00Z","end_at":"2024-07-13T01:30:00Z","organizers":[{"id":2653972,"name":"Colin Sepkovic"}]},{"id":38586108,"repeat_end":0,"day":[],"interval":null,"rcount":null,"rule_type":null,"all_day":null,"location_id":22675,"start_at":"2024-07-27T00:00:00Z","end_at":"2024-07-27T01:30:00Z","organizers":[{"id":2653972,"name":"Colin Sepkovic"}]},{"id":38607257,"repeat_end":0,"day":[],"interval":null,"rcount":null,"rule_type":null,"all_day":null,"location_id":22675,"start_at":"2024-07-06T00:00:00Z","end_at":"2024-07-06T01:30:00Z","organizers":[{"id":11498803,"name":"Amy Zhao"}]},{"id":39056854,"repeat_end":0,"day":[],"interval":null,"rcount":null,"rule_type":null,"all_day":null,"location_id":22675,"start_at":"2024-08-10T00:00:00Z","end_at":"2024-08-10T01:30:00Z","organizers":[{"id":2653972,"name":"Colin Sepkovic"}]},{"id":39239235,"repeat_end":0,"day":[],"interval":null,"rcount":null,"rule_type":null,"all_day":null,"location_id":22675,"start_at":"2024-08-17T00:00:00Z","end_at":"2024-08-17T01:30:00Z","organizers":[{"id":2653972,"name":"Colin Sepkovic"}]},{"id":39500751,"repeat_end":0,"day":[],"interval":null,"rcount":null,"rule_type":null,"all_day":null,"location_id":22675,"start_at":"2024-09-07T00:00:00Z","end_at":"2024-09-07T01:30:00Z","organizers":[{"id":11498803,"name":"Amy Zhao"}]},{"id":39500803,"repeat_end":0,"day":[],"interval":null,"rcount":null,"rule_type":null,"all_day":null,"location_id":22675,"start_at":"2024-09-14T00:00:00Z","end_at":"2024-09-14T01:30:00Z","organizers":[{"id":11498803,"name":"Amy Zhao"}]},{"id":39500907,"repeat_end":0,"day":[],"interval":null,"rcount":null,"rule_type":null,"all_day":null,"location_id":22675,"start_at":"2024-09-21T00:00:00Z","end_at":"2024-09-21T01:30:00Z","organizers":[{"id":11498803,"name":"Amy Zhao"}]},{"rrule":"Weekly on Fridays until September 11, 2025","id":39796643,"repeat_end":1,"day":["5"],"interval":1,"rcount":null,"rule_type":"Weekly","all_day":null,"location_id":22675,"start_at":"2024-09-28T00:00:00Z","end_at":"2024-09-28T01:30:00Z","organizers":[{"id":2653972,"name":"Colin Sepkovic"}],"until_at":"2025-09-12T06:59:59Z"},{"id":40065379,"repeat_end":0,"day":[],"interval":null,"rcount":null,"rule_type":null,"all_day":null,"location_id":22675,"start_at":"2024-10-19T00:00:00Z","end_at":"2024-10-19T01:30:00Z","organizers":[{"id":9206610,"name":"Osvaldo Ruiz"}]},{"id":40124560,"repeat_end":0,"day":[],"interval":null,"rcount":null,"rule_type":null,"all_day":null,"location_id":22675,"start_at":"2024-10-26T00:00:00Z","end_at":"2024-10-26T01:30:00Z","organizers":[{"id":10166404,"name":"Nick Graham"},{"id":13173352,"name":"Camille Phares"}]},{"id":41309587,"repeat_end":0,"day":[],"interval":null,"rcount":null,"rule_type":null,"all_day":null,"location_id":22675,"start_at":"2025-02-01T01:00:00Z","end_at":"2025-02-01T02:30:00Z","organizers":[{"id":10166404,"name":"Nick Graham"},{"id":13173352,"name":"Camille Phares"}]},{"id":42240102,"repeat_end":0,"day":[],"interval":null,"rcount":null,"rule_type":null,"all_day":null,"location_id":22675,"start_at":"2025-04-19T00:00:00Z","end_at":"2025-04-19T01:30:00Z","organizers":[{"id":10166404,"name":"Nick Graham"},{"id":13173352,"name":"Camille Phares"}]},{"id":42867219,"repeat_end":0,"day":[],"interval":null,"rcount":null,"rule_type":null,"all_day":null,"location_id":22675,"start_at":"2025-06-07T00:00:00Z","end_at":"2025-06-07T01:30:00Z","organizers":[{"id":2653972,"name":"Colin Sepkovic"},{"id":13173352,"name":"Camille Phares"}]},{"id":42867478,"repeat_end":0,"day":[],"interval":null,"rcount":null,"rule_type":null,"all_day":null,"location_id":22675,"start_at":"2025-06-14T00:00:00Z","end_at":"2025-06-14T01:30:00Z","organizers":[{"id":2653972,"name":"Colin Sepkovic"},{"id":13173352,"name":"Camille Phares"}]},{"id":43643834,"repeat_end":0,"day":[],"interval":null,"rcount":null,"rule_type":null,"all_day":null,"location_id":22675,"start_at":"2025-07-19T00:00:00Z","end_at":"2025-07-19T01:30:00Z","organizers":[{"id":2653972,"name":"Colin Sepkovic"},{"id":7363053,"name":"Alfred Sherlock"}]},{"id":44385110,"repeat_end":0,"day":[],"interval":null,"rcount":null,"rule_type":null,"all_day":null,"location_id":22675,"start_at":"2025-09-06T00:00:00Z","end_at":"2025-09-06T01:30:00Z","organizers":[{"id":7363053,"name":"Alfred Sherlock"}]},{"rrule":"Weekly on Fridays","id":44485450,"repeat_end":0,"day":["5"],"interval":1,"rcount":null,"rule_type":"Weekly","all_day":null,"location_id":22675,"start_at":"2025-09-13T00:00:00Z","end_at":"2025-09-13T01:30:00Z","organizers":[{"id":2653938,"name":"Gavin Morris"}]}]},{"id":10801655,"name":"Python@CV Ram","service_id":270616,"service_type":"class","start_time":"2022-09-16T22:30:00Z","end_time":null,"created_at":"2022-09-16T17:21:45Z","updated_at":"2025-11-11T20:37:20Z","instructions":null,"recurs":true,"attendees":[{"start_at":"2025-08-01T22:30:00Z","end_at":null},{"start_at":"2025-08-22T22:30:00Z","end_at":"2025-11-29T01:00:00Z"},{"start_at":"2025-09-26T22:30:00Z","end_at":null}],"icals":[{"rrule":"Weekly on Fridays until September 26, 2024","id":30257466,"repeat_end":1,"day":["5"],"interval":1,"rcount":null,"rule_type":"Weekly","all_day":null,"location_id":22675,"start_at":"2022-09-16T22:30:00Z","end_at":"2022-09-17T00:00:00Z","organizers":[{"id":9206610,"name":"Osvaldo Ruiz"}],"until_at":"2024-09-27T06:59:59Z"},{"id":31406185,"repeat_end":0,"day":[],"interval":null,"rcount":null,"rule_type":null,"all_day":null,"location_id":23281,"start_at":"2022-12-30T23:30:00Z","end_at":"2022-12-31T01:00:00Z"},{"id":32628186,"repeat_end":0,"day":[],"interval":null,"rcount":null,"rule_type":null,"all_day":null,"location_id":22675,"start_at":"2023-04-07T22:30:00Z","end_at":"2023-04-08T00:00:00Z","organizers":[{"id":10166404,"name":"Nick Graham"}]},{"id":32879518,"repeat_end":0,"day":[],"interval":null,"rcount":null,"rule_type":null,"all_day":null,"location_id":22675,"start_at":"2023-05-19T22:30:00Z","end_at":"2023-05-20T00:00:00Z","organizers":[{"id":5166821,"name":"Mike Johnson"}]},{"id":33840226,"repeat_end":0,"day":[],"interval":null,"rcount":null,"rule_type":null,"all_day":null,"location_id":22675,"start_at":"2023-07-07T22:30:00Z","end_at":"2023-07-08T00:00:00Z","organizers":[{"id":11498803,"name":"Amy Zhao"}]},{"id":34599426,"repeat_end":0,"day":[],"interval":null,"rcount":null,"rule_type":null,"all_day":null,"location_id":22675,"start_at":"2023-08-25T22:30:00Z","end_at":"2023-08-26T00:00:00Z","organizers":[{"id":10166404,"name":"Nick Graham"}]},{"id":35054631,"repeat_end":0,"day":[],"interval":null,"rcount":null,"rule_type":null,"all_day":null,"location_id":22675,"start_at":"2023-10-06T22:30:00Z","end_at":"2023-10-07T00:00:00Z","organizers":[{"id":5166821,"name":"Mike Johnson"}]},{"id":35054904,"repeat_end":0,"day":[],"interval":null,"rcount":null,"rule_type":null,"all_day":null,"location_id":22675,"start_at":"2023-09-22T22:30:00Z","end_at":"2023-09-23T00:00:00Z","organizers":[{"id":10166404,"name":"Nick Graham"}]},{"id":36134968,"repeat_end":0,"day":[],"interval":null,"rcount":null,"rule_type":null,"all_day":null,"location_id":22675,"start_at":"2024-01-05T23:30:00Z","end_at":"2024-01-06T01:00:00Z","organizers":[{"id":11498803,"name":"Amy Zhao"}]},{"id":36528822,"repeat_end":0,"day":[],"interval":null,"rcount":null,"rule_type":null,"all_day":null,"location_id":22675,"start_at":"2024-02-02T23:30:00Z","end_at":"2024-02-03T01:00:00Z","organizers":[{"id":10166404,"name":"Nick Graham"}]},{"id":38586082,"repeat_end":0,"day":[],"interval":null,"rcount":null,"rule_type":null,"all_day":null,"location_id":22675,"start_at":"2024-07-12T22:30:00Z","end_at":"2024-07-13T00:00:00Z","organizers":[{"id":2653972,"name":"Colin Sepkovic"}]},{"id":38586106,"repeat_end":0,"day":[],"interval":null,"rcount":null,"rule_type":null,"all_day":null,"location_id":22675,"start_at":"2024-07-26T22:30:00Z","end_at":"2024-07-27T00:00:00Z","organizers":[{"id":2653972,"name":"Colin Sepkovic"}]},{"id":38607252,"repeat_end":0,"day":[],"interval":null,"rcount":null,"rule_type":null,"all_day":null,"location_id":22675,"start_at":"2024-07-05T22:30:00Z","end_at":"2024-07-06T00:00:00Z","organizers":[{"id":11498803,"name":"Amy Zhao"}]},{"id":39056847,"repeat_end":0,"day":[],"interval":null,"rcount":null,"rule_type":null,"all_day":null,"location_id":22675,"start_at":"2024-08-09T22:30:00Z","end_at":"2024-08-10T00:00:00Z","organizers":[{"id":2653972,"name":"Colin Sepkovic"}]},{"id":39239228,"repeat_end":0,"day":[],"interval":null,"rcount":null,"rule_type":null,"all_day":null,"location_id":22675,"start_at":"2024-08-16T22:30:00Z","end_at":"2024-08-17T00:00:00Z","organizers":[{"id":10166404,"name":"Nick Graham"}]},{"id":39500742,"repeat_end":0,"day":[],"interval":null,"rcount":null,"rule_type":null,"all_day":null,"location_id":22675,"start_at":"2024-09-06T22:30:00Z","end_at":"2024-09-07T00:00:00Z","organizers":[{"id":11498803,"name":"Amy Zhao"}]},{"id":39500788,"repeat_end":0,"day":[],"interval":null,"rcount":null,"rule_type":null,"all_day":null,"location_id":22675,"start_at":"2024-09-13T22:30:00Z","end_at":"2024-09-14T00:00:00Z","organizers":[{"id":11498803,"name":"Amy Zhao"}]},{"id":39500874,"repeat_end":0,"day":[],"interval":null,"rcount":null,"rule_type":null,"all_day":null,"location_id":22675,"start_at":"2024-09-20T22:30:00Z","end_at":"2024-09-21T00:00:00Z","organizers":[{"id":11498803,"name":"Amy Zhao"}]},{"rrule":"Weekly on Fridays until January 16, 2025","id":39796631,"repeat_end":1,"day":["5"],"interval":1,"rcount":null,"rule_type":"Weekly","all_day":null,"location_id":22675,"start_at":"2024-09-27T22:30:00Z","end_at":"2024-09-28T00:00:00Z","organizers":[{"id":2653972,"name":"Colin Sepkovic"}],"until_at":"2025-01-17T07:59:59Z"},{"id":40065371,"repeat_end":0,"day":[],"interval":null,"rcount":null,"rule_type":null,"all_day":null,"location_id":22675,"start_at":"2024-10-18T22:30:00Z","end_at":"2024-10-19T00:00:00Z","organizers":[{"id":9206610,"name":"Osvaldo Ruiz"}]},{"id":40124456,"repeat_end":0,"day":[],"interval":null,"rcount":null,"rule_type":null,"all_day":null,"location_id":22675,"start_at":"2024-10-25T22:30:00Z","end_at":"2024-10-26T00:00:00Z","organizers":[{"id":10166404,"name":"Nick Graham"},{"id":13173352,"name":"Camille Phares"}]},{"rrule":"Weekly on Fridays until September 11, 2025","id":41054680,"repeat_end":1,"day":["5"],"interval":1,"rcount":null,"rule_type":"Weekly","all_day":null,"location_id":22675,"start_at":"2025-01-17T23:30:00Z","end_at":"2025-01-18T01:00:00Z","organizers":[{"id":2653972,"name":"Colin Sepkovic"}],"until_at":"2025-09-12T06:59:59Z"},{"id":41309586,"repeat_end":0,"day":[],"interval":null,"rcount":null,"rule_type":null,"all_day":null,"location_id":22675,"start_at":"2025-01-31T23:30:00Z","end_at":"2025-02-01T01:00:00Z","organizers":[{"id":10166404,"name":"Nick Graham"},{"id":13173352,"name":"Camille Phares"}]},{"id":42240092,"repeat_end":0,"day":[],"interval":null,"rcount":null,"rule_type":null,"all_day":null,"location_id":22675,"start_at":"2025-04-18T22:30:00Z","end_at":"2025-04-19T00:00:00Z","organizers":[{"id":10166404,"name":"Nick Graham"},{"id":13173352,"name":"Camille Phares"}]},{"id":42867213,"repeat_end":0,"day":[],"interval":null,"rcount":null,"rule_type":null,"all_day":null,"location_id":22675,"start_at":"2025-06-06T22:30:00Z","end_at":"2025-06-07T00:00:00Z","organizers":[{"id":2653972,"name":"Colin Sepkovic"},{"id":13173352,"name":"Camille Phares"}]},{"id":43643802,"repeat_end":0,"day":[],"interval":null,"rcount":null,"rule_type":null,"all_day":null,"location_id":22675,"start_at":"2025-07-18T22:30:00Z","end_at":"2025-07-19T00:00:00Z","organizers":[{"id":2653972,"name":"Colin Sepkovic"},{"id":7363053,"name":"Alfred Sherlock"}]},{"id":44385079,"repeat_end":0,"day":[],"interval":null,"rcount":null,"rule_type":null,"all_day":null,"location_id":22675,"start_at":"2025-09-05T22:30:00Z","end_at":"2025-09-06T00:00:00Z","organizers":[{"id":7363053,"name":"Alfred Sherlock"}]},{"rrule":"Weekly on Fridays","id":44485439,"repeat_end":0,"day":["5"],"interval":1,"rcount":null,"rule_type":"Weekly","all_day":null,"location_id":22675,"start_at":"2025-09-12T22:30:00Z","end_at":"2025-09-13T00:00:00Z","organizers":[{"id":2653938,"name":"Gavin Morris"}]}]},{"id":11759762,"name":"Python/Java@CV Bear","service_id":270616,"service_type":"class","start_time":"2023-04-09T18:30:00Z","end_time":null,"created_at":"2023-03-29T19:22:24Z","updated_at":"2025-11-11T17:32:27Z","instructions":null,"recurs":true,"attendees":[{"start_at":"2023-09-03T18:30:00Z","end_at":"2025-11-30T21:00:00Z"},{"start_at":"2024-01-28T19:30:00Z","end_at":null},{"start_at":"2025-06-15T18:30:00Z","end_at":null}],"icals":[{"rrule":"Weekly on Sundays until September 16, 2023","id":32511871,"repeat_end":1,"day":["0"],"interval":1,"rcount":null,"rule_type":"Weekly","all_day":null,"location_id":22675,"start_at":"2023-04-09T18:30:00Z","end_at":"2023-04-09T20:00:00Z","until_at":"2023-09-17T06:59:59Z"},{"id":33477426,"repeat_end":0,"day":[],"interval":null,"rcount":null,"rule_type":null,"all_day":null,"location_id":22675,"start_at":"2023-06-11T18:30:00Z","end_at":"2023-06-11T20:00:00Z"},{"id":34290162,"repeat_end":0,"day":[],"interval":null,"rcount":null,"rule_type":null,"all_day":null,"location_id":22675,"start_at":"2023-08-20T18:30:00Z","end_at":"2023-08-20T20:00:00Z","organizers":[{"id":11498803,"name":"Amy Zhao"}]},{"rrule":"Weekly on Sundays until November 4, 2023","id":34825891,"repeat_end":1,"day":["0"],"interval":1,"rcount":null,"rule_type":"Weekly","all_day":null,"location_id":22675,"start_at":"2023-09-17T18:30:00Z","end_at":"2023-09-17T20:00:00Z","until_at":"2023-11-05T06:59:59Z"},{"rrule":"Weekly on Sundays until December 9, 2023","id":35430578,"repeat_end":1,"day":["0"],"interval":1,"rcount":null,"rule_type":"Weekly","all_day":null,"location_id":22675,"start_at":"2023-11-05T19:30:00Z","end_at":"2023-11-05T21:00:00Z","organizers":[{"id":11323921,"name":"Jed Stumpf"}],"until_at":"2023-12-10T07:59:59Z"},{"rrule":"Weekly on Sundays until January 6, 2024","id":35832371,"repeat_end":1,"day":["0"],"interval":1,"rcount":null,"rule_type":"Weekly","all_day":null,"location_id":22675,"start_at":"2023-12-10T19:30:00Z","end_at":"2023-12-10T21:00:00Z","organizers":[{"id":11323921,"name":"Jed Stumpf"}],"until_at":"2024-01-07T07:59:59Z"},{"id":36059933,"repeat_end":0,"day":[],"interval":null,"rcount":null,"rule_type":null,"all_day":null,"location_id":22675,"start_at":"2023-12-24T19:30:00Z","end_at":"2023-12-24T21:00:00Z","organizers":[{"id":9033303,"name":"TA-Dexter Haehnichen"}]},{"id":36103546,"repeat_end":0,"day":[],"interval":null,"rcount":null,"rule_type":null,"all_day":null,"location_id":22675,"start_at":"2023-12-31T19:30:00Z","end_at":"2023-12-31T21:00:00Z","organizers":[{"id":9033303,"name":"TA-Dexter Haehnichen"}]},{"rrule":"Weekly on Sundays until March 23, 2024","id":36151588,"repeat_end":1,"day":["0"],"interval":1,"rcount":null,"rule_type":"Weekly","all_day":null,"location_id":22675,"start_at":"2024-01-07T19:30:00Z","end_at":"2024-01-07T21:00:00Z","organizers":[{"id":11323921,"name":"Jed Stumpf"}],"until_at":"2024-03-24T06:59:59Z"},{"rrule":"Weekly on Sundays until September 21, 2024","id":37058690,"repeat_end":1,"day":["0"],"interval":1,"rcount":null,"rule_type":"Weekly","all_day":null,"location_id":22675,"start_at":"2024-03-24T18:30:00Z","end_at":"2024-03-24T20:00:00Z","organizers":[{"id":11323921,"name":"Jed Stumpf"}],"until_at":"2024-09-22T06:59:59Z"},{"id":37058740,"repeat_end":0,"day":[],"interval":null,"rcount":null,"rule_type":null,"all_day":null,"location_id":22675,"start_at":"2024-03-17T18:30:00Z","end_at":"2024-03-17T20:00:00Z","organizers":[{"id":11323921,"name":"Jed Stumpf"}]},{"id":37060708,"repeat_end":0,"day":[],"interval":null,"rcount":null,"rule_type":null,"all_day":null,"location_id":22675,"start_at":"2024-03-24T18:30:00Z","end_at":"2024-03-24T20:00:00Z","organizers":[{"id":11323921,"name":"Jed Stumpf"}]},{"id":38340891,"repeat_end":0,"day":[],"interval":null,"rcount":null,"rule_type":null,"all_day":null,"location_id":22675,"start_at":"2024-06-23T18:30:00Z","end_at":"2024-06-23T20:00:00Z","organizers":[{"id":2653972,"name":"Colin Sepkovic"}]},{"id":38340943,"repeat_end":0,"day":[],"interval":null,"rcount":null,"rule_type":null,"all_day":null,"location_id":22675,"start_at":"2024-07-28T18:30:00Z","end_at":"2024-07-28T20:00:00Z","organizers":[{"id":2653972,"name":"Colin Sepkovic"}]},{"id":38340964,"repeat_end":0,"day":[],"interval":null,"rcount":null,"rule_type":null,"all_day":null,"location_id":22675,"start_at":"2024-08-11T18:30:00Z","end_at":"2024-08-11T20:00:00Z","organizers":[{"id":2653972,"name":"Colin Sepkovic"}]},{"id":39623172,"repeat_end":0,"day":[],"interval":null,"rcount":null,"rule_type":null,"all_day":null,"location_id":22675,"start_at":"2024-09-15T18:30:00Z","end_at":"2024-09-15T20:00:00Z","organizers":[{"id":11498803,"name":"Amy Zhao"}]},{"rrule":"Weekly on Sundays until November 2, 2024","id":39712455,"repeat_end":1,"day":["0"],"interval":1,"rcount":null,"rule_type":"Weekly","all_day":null,"location_id":22675,"start_at":"2024-09-22T18:30:00Z","end_at":"2024-09-22T20:00:00Z","organizers":[{"id":11323921,"name":"Jed Stumpf"},{"id":12190547,"name":"TA - Shreyas Hosmani"}],"until_at":"2024-11-03T06:59:59Z"},{"id":40040687,"repeat_end":0,"day":[],"interval":null,"rcount":null,"rule_type":null,"all_day":null,"location_id":22675,"start_at":"2024-10-27T18:30:00Z","end_at":"2024-10-27T20:00:00Z","organizers":[{"id":2653938,"name":"Gavin Morris"},{"id":10166404,"name":"Nick Graham"},{"id":12190547,"name":"TA - Shreyas Hosmani"}]},{"rrule":"Weekly on Sundays until December 14, 2024","id":40040705,"repeat_end":1,"day":["0"],"interval":1,"rcount":null,"rule_type":"Weekly","all_day":null,"location_id":22675,"start_at":"2024-11-03T19:30:00Z","end_at":"2024-11-03T21:00:00Z","organizers":[{"id":2653938,"name":"Gavin Morris"},{"id":11323921,"name":"Jed Stumpf"},{"id":12190547,"name":"TA - Shreyas Hosmani"}],"until_at":"2024-12-15T07:59:59Z"},{"id":40291915,"repeat_end":0,"day":[],"interval":null,"rcount":null,"rule_type":null,"all_day":null,"location_id":22675,"start_at":"2024-11-17T19:30:00Z","end_at":"2024-11-17T21:00:00Z","organizers":[{"id":2653938,"name":"Gavin Morris"},{"id":2653972,"name":"Colin Sepkovic"},{"id":12190547,"name":"TA - Shreyas Hosmani"}]},{"id":40535923,"repeat_end":0,"day":[],"interval":null,"rcount":null,"rule_type":null,"all_day":null,"location_id":22675,"start_at":"2024-12-01T19:30:00Z","end_at":"2024-12-01T21:00:00Z","organizers":[{"id":2653938,"name":"Gavin Morris"},{"id":11498803,"name":"Amy Zhao"},{"id":12190547,"name":"TA - Shreyas Hosmani"}]},{"id":40665941,"repeat_end":0,"day":[],"interval":null,"rcount":null,"rule_type":null,"all_day":null,"location_id":22675,"start_at":"2024-12-08T19:30:00Z","end_at":"2024-12-08T21:00:00Z","organizers":[{"id":2653938,"name":"Gavin Morris"},{"id":11323921,"name":"Jed Stumpf"},{"id":12190547,"name":"TA - Shreyas Hosmani"}]},{"rrule":"Weekly on Sundays until February 1, 2025","id":40692489,"repeat_end":1,"day":["0"],"interval":1,"rcount":null,"rule_type":"Weekly","all_day":null,"location_id":22675,"start_at":"2024-12-15T19:30:00Z","end_at":"2024-12-15T21:00:00Z","organizers":[{"id":2653938,"name":"Gavin Morris"},{"id":11323921,"name":"Jed Stumpf"},{"id":12190547,"name":"TA - Shreyas Hosmani"}],"until_at":"2025-02-02T07:59:59Z"},{"id":40692535,"repeat_end":0,"day":[],"interval":null,"rcount":null,"rule_type":null,"all_day":null,"location_id":22675,"start_at":"2024-12-22T19:30:00Z","end_at":"2024-12-22T21:00:00Z","organizers":[{"id":2653938,"name":"Gavin Morris"},{"id":11498803,"name":"Amy Zhao"},{"id":12190547,"name":"TA - Shreyas Hosmani"}]},{"id":40692594,"repeat_end":0,"day":[],"interval":null,"rcount":null,"rule_type":null,"all_day":null,"location_id":22675,"start_at":"2024-12-29T19:30:00Z","end_at":"2024-12-29T21:00:00Z","organizers":[{"id":2653938,"name":"Gavin Morris"},{"id":11498803,"name":"Amy Zhao"},{"id":12190547,"name":"TA - Shreyas Hosmani"}]},{"id":41051071,"repeat_end":0,"day":[],"interval":null,"rcount":null,"rule_type":null,"all_day":null,"location_id":22675,"start_at":"2025-01-12T19:30:00Z","end_at":"2025-01-12T21:00:00Z","organizers":[{"id":2653938,"name":"Gavin Morris"},{"id":11498803,"name":"Amy Zhao"},{"id":12190547,"name":"TA - Shreyas Hosmani"}]},{"rrule":"Weekly on Sundays until May 31, 2025","id":41320651,"repeat_end":1,"day":["0"],"interval":1,"rcount":null,"rule_type":"Weekly","all_day":null,"location_id":22675,"start_at":"2025-02-02T19:30:00Z","end_at":"2025-02-02T21:00:00Z","organizers":[{"id":2653938,"name":"Gavin Morris"},{"id":12190547,"name":"TA - Shreyas Hosmani"}],"until_at":"2025-06-01T06:59:59Z"},{"id":42059237,"repeat_end":0,"day":[],"interval":null,"rcount":null,"rule_type":null,"all_day":null,"location_id":22675,"start_at":"2025-03-30T18:30:00Z","end_at":"2025-03-30T20:00:00Z","organizers":[{"id":2503800,"name":"Keith Groves"},{"id":2653938,"name":"Gavin Morris"},{"id":12190547,"name":"TA - Shreyas Hosmani"}]},{"id":42059254,"repeat_end":0,"day":[],"interval":null,"rcount":null,"rule_type":null,"all_day":null,"location_id":22675,"start_at":"2025-04-06T18:30:00Z","end_at":"2025-04-06T20:00:00Z","organizers":[{"id":2503800,"name":"Keith Groves"},{"id":2653938,"name":"Gavin Morris"},{"id":12190547,"name":"TA - Shreyas Hosmani"}]},{"id":42240513,"repeat_end":0,"day":[],"interval":null,"rcount":null,"rule_type":null,"all_day":null,"location_id":22675,"start_at":"2025-05-04T18:30:00Z","end_at":"2025-05-04T20:00:00Z","organizers":[{"id":2503800,"name":"Keith Groves"},{"id":2653938,"name":"Gavin Morris"},{"id":12190547,"name":"TA - Shreyas Hosmani"}]},{"id":42240536,"repeat_end":0,"day":[],"interval":null,"rcount":null,"rule_type":null,"all_day":null,"location_id":22675,"start_at":"2025-05-11T18:30:00Z","end_at":"2025-05-11T20:00:00Z","organizers":[{"id":2503800,"name":"Keith Groves"},{"id":2653938,"name":"Gavin Morris"},{"id":12190547,"name":"TA - Shreyas Hosmani"}]},{"id":42240554,"repeat_end":0,"day":[],"interval":null,"rcount":null,"rule_type":null,"all_day":null,"location_id":22675,"start_at":"2025-05-18T18:30:00Z","end_at":"2025-05-18T20:00:00Z","organizers":[{"id":2503800,"name":"Keith Groves"},{"id":2653938,"name":"Gavin Morris"},{"id":12190547,"name":"TA - Shreyas Hosmani"}]},{"rrule":"Weekly on Sundays until July 5, 2025","id":42857782,"repeat_end":1,"day":["0"],"interval":1,"rcount":null,"rule_type":"Weekly","all_day":null,"location_id":22675,"start_at":"2025-06-01T18:30:00Z","end_at":"2025-06-01T20:00:00Z","organizers":[{"id":12190547,"name":"TA - Shreyas Hosmani"}],"until_at":"2025-07-06T06:59:59Z"},{"rrule":"Weekly on Sundays until September 27, 2025","id":43370238,"repeat_end":1,"day":["0"],"interval":1,"rcount":null,"rule_type":"Weekly","all_day":null,"location_id":22675,"start_at":"2025-07-06T18:30:00Z","end_at":"2025-07-06T20:00:00Z","organizers":[{"id":2503800,"name":"Keith Groves"},{"id":12190547,"name":"TA - Shreyas Hosmani"}],"until_at":"2025-09-28T06:59:59Z"},{"id":44541931,"repeat_end":0,"day":[],"interval":null,"rcount":null,"rule_type":null,"all_day":null,"location_id":22675,"start_at":"2025-09-21T18:30:00Z","end_at":"2025-09-21T20:00:00Z","organizers":[{"id":2653938,"name":"Gavin Morris"},{"id":12190547,"name":"TA - Shreyas Hosmani"}]},{"rrule":"Weekly on Sundays","id":44544747,"repeat_end":0,"day":["0"],"interval":1,"rcount":null,"rule_type":"Weekly","all_day":null,"location_id":22675,"start_at":"2025-09-28T18:30:00Z","end_at":"2025-09-28T20:00:00Z","organizers":[{"id":2653938,"name":"Gavin Morris"},{"id":12190547,"name":"TA - Shreyas Hosmani"}]}]}],"total_count":12,"next":"https://jtl.pike13.com/api/v2/front/events?page=2\u0026per_page=5"}